{
    "version": "3.0",
    "versionCode": "3018",
    "zipUrl": "https://forum.xda-developers.com/attachments/update-zipsigner-installer-v3-0-signed-zip.5760599/",
    "changelog": "https://raw.githubusercontent.com/Magisk-Modules-Repo/zipsigner/master/README.md"
}
